{
    "main_package": "techberry-go/apis",
    "getDataOnly": false,
    "checkDataSection": true,
    "tempUploadDir": true,
    "module_directory": "modules",
    "app_user": "admin",
    "app_key": "password",
    "temp_module_path": "modules",
    "template": {
        "repository": "wdscompany-go/msa-template.git",
        "version": "v1.2"
    },
    "common": {
        "repository": "techberry-go/common.git",
        "path": "modules/techberry-go/common"
    },
    "sandbox_common": {
        "repository": "techberry-go/sandbox-common.git",
        "path": "modules/techberry-go/sandbox-common"
    },
    "container": {
        "name": "msa-sb-toolkit-service",
        "image": "msa-sb-toolkit-service-img",
        "docker_file": "Dockerfile-springboot-gradle_build",
        "compose_file": "docker-compose-msa-sb-toolkit-service.yml"
    },
    "binding_var": [
        {
            "variable": "<module_version>",
            "value": "1.0.0"
        },
        {
            "variable": "<module_title>",
            "value": "sb-toolkit-service"
        },
        {
            "variable": "<module_description>",
            "value": "sb-toolkit-service"
        },
        {
            "variable": "<module_owner>",
            "value": "support@wdscompany.com"
        },
        {
            "variable": "<common_package>",
            "value": "techberry-go/common"
        },
        {
            "variable": "<context_path>",
            "value": "/apis/msa/sb-toolkit-service"
        },
        {
            "variable": "wdscompany\\-go/msa\\-template",
            "value": "techberry-go/apis"
        }
    ],
    "modules": [
        {
            "repository": "ssquare-apig/sb-toolkit-service.git",
            "path": "modules/",
            "package": "",
            "version": "master"
        }
    ],
    "nginx": {
        "name": "nginx_msa"
    },
    "mongodb": {
        "connection_url": "mongodb://dbadmin:Vfr4Bgt5Nhy6@mongo-apihub:27017",
        "init": "initMongodb(\\\"#connection_url#\\\")",
        "enable": "zxEngine.ConnectorManager().EnableNoSql(app.NoSQLConnectionURL)"
    },
    "elastic": {
        "host": "elasticsearch",
        "port": 9200,
        "enable": "zxEngine.ConnectorManager().EnableElastic(_properties.DefaultString(\\\"elastic.host\\\", \\\"#host#\\\"), _properties.DefaultInt(\\\"elastic.port\\\", #port#))"
    },
    "elastic_logger": {
        "host": "elasticsearch",
        "port": 9200,
        "init": "initElasticLogger(_properties.DefaultString(\\\"elastic_logger.host\\\", \\\"#host#\\\"), _properties.DefaultInt(\\\"elastic_logger.port\\\", #port#))",
        "binding_var": true
    },
    "redis": {
        "host": "redis",
        "port": 6379,
        "dbnum": 80,
        "enable": "zxEngine.ConnectorManager().EnableRedisCache(_properties.DefaultString(\\\"redis.host\\\", \\\"#host#\\\"), _properties.DefaultInt(\\\"redis.port\\\", #port#), _properties.DefaultInt(\\\"redis.dbnum\\\", #dbnum#))"
    },
    "beegocache": {
        "host": "redis",
        "port": 6379,
        "dbnum": 9,
        "key": "connector",
        "init": "initBeegoCache(_properties.DefaultString(\\\"beegocache.key\\\", \\\"#key#\\\"), _properties.DefaultString(\\\"beegocache.host\\\", \\\"#host#\\\"), _properties.DefaultInt(\\\"beegocache.port\\\", #port#), _properties.DefaultInt(\\\"beegocache.dbnum\\\", #dbnum#))",
        "enable": "zxEngine.ConnectorManager().EnableBeegoCache(app.BeegoCache)"
    },
    "mqtt_connectors": []
}