{
    "main_package": "techberry-go/apis",
    "getDataOnly": false,
    "checkDataSection": false,
    "tempUploadDir": true,
    "module_directory": "modules",
    "app_user": "",
    "app_key": "",
    "temp_module_path": "modules/techberry-go/apis",
    "template": {
        "repository": "golang_template/msa-template.git",
        "version": "master"
    },
    "common": {
        "repository": "golang_libraries/common.git",
        "path": "modules/techberry-go/common"
    },
    "sandbox_common": {
        "repository": "patanayont_msa/sandbox-common.git",
        "path": "modules/techberry-go/sandbox-common"
    },
    "container": {
        "name": "msa-conicle-mtl-authen",
        "image": "msa-conicle-mtl-authen-img",
        "docker_file": "Dockerfile-go_build",
        "compose_file": "docker-compose-msa-conicle-mtl-authen.yml"
    },
    "binding_var": [
        {
            "variable":"<module_version>",
            "value":"1.1.1"
          
        },
          {
            "variable":"<module_title>",
            "value":"Authen Module"
          
        },
          {
            "variable":"<module_description>",
            "value":"Authen API(s)"
          
        },
          {
            "variable":"<module_owner>",
            "value":"support@techberry.co.th"
          
        },
          {
            "variable":"<common_package>",
            "value":"techberry-go/common"
          
      },
     {
       "variable":"<context_path>/:version",
       "value":"/apis/msa/conicle-mtl-authen"
     
     },
     {
            "variable":"<context_path>",
            "value":"/apis/msa/conicle-mtl-authen"
          
      },
          {
            "variable":"<module_package>",
            "value":"techberry-go/apis"
          
      },
        {
            "variable":"<service_name>",
            "value":"conicle-mtl-authen"
          
      },
      {
          "variable":"<app_uuid>",
          "value":"PRDTfR7h0fXMv4b0SR95GGOSfNqW5WIb"
        
      },
      {
        "variable":"//<enable_static_license>",
        "value":"enable = true"
      
     },
      {
        "variable":"//<enable_appkey>",
        "value":"enable = true"
      
     },
     {
      "variable":"//<enable_license>",
      "value":"enable = false"    
     },
     {
      "variable":"<start_date>",
      "value":"1601398800000"    
     },
     {
      "variable":"<end_date>",
      "value":"1633626000000"    
     },
     {
      "variable":"<app_ip_address>",
      "value":"10.200.6.195"    
     },
     {
      "variable":"<app_port>",
      "value":"80"    
     },
     {
      "variable":"<app_mac_address>",
      "value":"00:50:56:B5:2D:51"    
     }
    ],
    "modules": [
        {
            "repository": "cus/conicle-mtl-authen.git",
            "path": "modules/sandbox/conicle-mtl-authen",
            "package": "sandbox/conicle-mtl-authen",
            "version": "master"
        }
    ],
    "file_logger": {
        "filename": "logger.log",
        "maxlines": 1000000,
        "maxsize": 10,
        "daily": true,
        "maxdays": 7,
        "rotate": true,
        "level": 0,
        "init": "initFileLogger(_properties.DefaultString(\\\"logger.filename\\\", \\\"#filename#\\\"), _properties.DefaultInt(\\\"logger.maxlines\\\", #maxlines#), _properties.DefaultInt(\\\"logger.maxsize\\\", #maxsize#), _properties.DefaultBool(\\\"logger.daily\\\", #daily#), _properties.DefaultInt(\\\"logger.maxdays\\\", #maxdays#), _properties.DefaultBool(\\\"logger.rotate\\\", #rotate#), _properties.DefaultInt(\\\"logger.level\\\", #level#))"
    },
    "redis": {
        "host": "redis",
        "port": 6379,
        "dbnum": 0,
        "enable": "zxEngine.ConnectorManager().EnableRedisCache(_properties.DefaultString(\\\"redis.host\\\", \\\"#host#\\\"), _properties.DefaultInt(\\\"redis.port\\\", #port#), _properties.DefaultInt(\\\"redis.dbnum\\\", #dbnum#))"
    },
    "nginx": {
        "name": "nginx_msa"
    }
}
